{
  "de": {
    "E": 15.99,
    "N": 9.59,
    "R": 7.71,
    "I": 7.6,
    "T": 6.43,
    "S": 6.41,
    "A": 6.34,
    "D": 4.92,
    "H": 4.11,
    "U": 3.76,
    "L": 3.72,
    "G": 3.02,
    "O": 2.75,
    "M": 2.75,
    "C": 2.71,
    "B": 2.21,
    "F": 1.8,
    "K": 1.5,
    "W": 1.4,
    "Z": 1.22,
    "P": 1.06,
    "V": 0.94,
    "Ü": 0.63,
    "Ä": 0.54,
    "J": 0.27,
    "Ö": 0.24,
    "ß": 0.15,
    "Y": 0.13,
    "X": 0.07,
    "Q": 0.04
  }
}
