<?xml version="1.0" encoding="UTF-8" standalone="no"?>
<!-- Created with Inkscape (http://www.inkscape.org/) -->

<svg
   xmlns:dc="http://purl.org/dc/elements/1.1/"
   xmlns:cc="http://creativecommons.org/ns#"
   xmlns:rdf="http://www.w3.org/1999/02/22-rdf-syntax-ns#"
   xmlns:svg="http://www.w3.org/2000/svg"
   xmlns="http://www.w3.org/2000/svg"
   xmlns:sodipodi="http://sodipodi.sourceforge.net/DTD/sodipodi-0.dtd"
   xmlns:inkscape="http://www.inkscape.org/namespaces/inkscape"
   width="9.6805964mm"
   height="5.9372678mm"
   viewBox="0 0 9.6805963 5.9372676"
   version="1.1"
   id="svg1983"
   inkscape:version="0.92.1 r15371"
   sodipodi:docname="mouse-left-click.svg">
  <defs
     id="defs1977">
    <linearGradient
       id="bb"
       x1="113.58"
       x2="113.58"
       y1="131.75999"
       y2="89.069"
       gradientUnits="userSpaceOnUse"
       gradientTransform="matrix(0.19084,0,0,0.19084,-1.4870362,40.261849)">
      <stop
         stop-color="#D8D9DB"
         offset="0"
         id="stop87" />
      <stop
         stop-color="#F8F8F9"
         offset="1"
         id="stop89" />
    </linearGradient>
    <linearGradient
       id="bc"
       x1="127.17"
       x2="127.17"
       y1="89.069"
       y2="64.211998"
       gradientUnits="userSpaceOnUse"
       gradientTransform="matrix(0.19084,0,0,0.19084,-1.4870362,40.261849)">
      <stop
         stop-color="#D8D9DB"
         offset="0"
         id="stop92" />
      <stop
         stop-color="#F8F8F9"
         offset="1"
         id="stop94" />
    </linearGradient>
  </defs>
  <sodipodi:namedview
     id="base"
     pagecolor="#ffffff"
     bordercolor="#666666"
     borderopacity="1.0"
     inkscape:pageopacity="0.0"
     inkscape:pageshadow="2"
     inkscape:zoom="3.77"
     inkscape:cx="-44.714744"
     inkscape:cy="58.98244"
     inkscape:document-units="mm"
     inkscape:current-layer="layer1"
     showgrid="false"
     fit-margin-top="0.5"
     fit-margin-left="0"
     fit-margin-right="0"
     fit-margin-bottom="0.5"
     inkscape:window-width="1841"
     inkscape:window-height="996"
     inkscape:window-x="79"
     inkscape:window-y="27"
     inkscape:window-maximized="1" />
  <metadata
     id="metadata1980">
    <rdf:RDF>
      <cc:Work
         rdf:about="">
        <dc:format>image/svg+xml</dc:format>
        <dc:type
           rdf:resource="http://purl.org/dc/dcmitype/StillImage" />
        <dc:title></dc:title>
      </cc:Work>
    </rdf:RDF>
  </metadata>
  <g
     inkscape:label="Layer 1"
     inkscape:groupmode="layer"
     id="layer1"
     transform="translate(-15.570411,-51.919288)">
    <path
       d="m 15.66719,57.259777 h 4.74371 v -4.74371 c -2.619852,0 -4.74371,2.123858 -4.74371,4.74371 z"
       id="path358"
       inkscape:connector-curvature="0"
       style="fill:#fcb021;stroke-width:0.19084001" />
    <path
       d="m 25.154228,57.259777 h -4.74371 v -4.74371 c 2.619851,0 4.74371,2.123858 4.74371,4.74371 z"
       stroke-miterlimit="10"
       id="path360"
       style="fill:url(#bc);stroke:#595a5c;stroke-width:0.19084001;stroke-linecap:round;stroke-linejoin:round;stroke-miterlimit:10"
       inkscape:connector-curvature="0" />
    <path
       d="M 20.409945,52.537632 V 52.5161 c -0.818722,0 -1.58901,0.207404 -2.261072,0.572539 -0.336069,0.182571 -0.647635,0.40458 -0.928437,0.659791 -0.112324,0.102093 -0.219733,0.209504 -0.321813,0.321813 -0.102084,0.112323 -0.198855,0.229562 -0.289924,0.351337 -0.136592,0.182645 -0.260325,0.375458 -0.369867,0.577119 -0.07303,0.134435 -0.139747,0.272787 -0.199752,0.414676 -0.03001,0.07094 -0.05833,0.142769 -0.08493,0.21542 -0.186218,0.508589 -0.287844,1.05796 -0.287844,1.631053 h 0.446261 c 0,-2.469279 1.886968,-4.497145 4.297526,-4.722145 z"
       id="path362"
       inkscape:connector-curvature="0"
       style="fill:#ffffff;stroke-width:0.19084001" />
    <line
       x1="15.66719"
       x2="25.154228"
       y1="57.259777"
       y2="57.259777"
       id="line364"
       style="fill:none;stroke-width:0.19084001" />
    <path
       d="m 25.154228,57.259777 c 0,-1.834946 -1.042559,-3.425387 -2.566989,-4.214511 1.2842,0.848857 2.131874,2.304966 2.131874,3.959549 l -4.308595,0.2525 v 0.0024 h 4.74371 z"
       id="path366"
       inkscape:connector-curvature="0"
       style="fill:#ffffff;stroke-width:0.19084001" />
    <path
       d="m 15.66719,57.259777 c 0,-2.619852 2.123858,-4.74371 4.74371,-4.74371 2.619851,0 4.743709,2.123858 4.743709,4.74371"
       stroke-miterlimit="10"
       id="path368"
       inkscape:connector-curvature="0"
       style="fill:none;stroke:#595a5c;stroke-width:0.19084001;stroke-linecap:round;stroke-linejoin:round;stroke-miterlimit:10" />
    <line
       x1="15.66719"
       x2="25.154228"
       y1="57.259777"
       y2="57.259777"
       stroke-miterlimit="10"
       id="line372"
       style="fill:none;stroke:#595a5c;stroke-width:0.19084001;stroke-linecap:round;stroke-linejoin:round;stroke-miterlimit:10" />
    <line
       x1="20.409945"
       x2="20.409945"
       y1="52.516068"
       y2="57.259777"
       stroke-miterlimit="10"
       id="line374"
       style="fill:none;stroke:#595a5c;stroke-width:0.19084001;stroke-linecap:round;stroke-linejoin:round;stroke-miterlimit:10" />
    <path
       d="m 20.409945,56.490119 h -2e-6 c -0.384943,0 -0.697004,-0.312061 -0.697004,-0.697005 v -1.39401 c 0,-0.384943 0.312061,-0.697004 0.697004,-0.697004 h 2e-6 c 0.384944,0 0.697005,0.312061 0.697005,0.697004 v 1.39401 c 0,0.384944 -0.312061,0.697005 -0.697005,0.697005 z"
       id="path376"
       inkscape:connector-curvature="0"
       style="fill:#d1d3d4;stroke-width:0.19084001" />
    <path
       d="m 19.917578,54.602712 c 0,-0.384944 0.312062,-0.697005 0.697005,-0.697005 0.14031,0 0.270382,0.0423 0.379753,0.113639 -0.124377,-0.19067 -0.338722,-0.317252 -0.58336,-0.317252 -0.384943,0 -0.697005,0.312061 -0.697005,0.697005 v 1.39401 c 0,0.244637 0.126577,0.458989 0.317252,0.583359 -0.07134,-0.109366 -0.113647,-0.239447 -0.113647,-0.379752 z"
       id="path378"
       inkscape:connector-curvature="0"
       style="fill:#ffffff;stroke-width:0.19084001" />
    <path
       d="m 20.409945,56.490119 h -2e-6 c -0.384943,0 -0.697004,-0.312061 -0.697004,-0.697005 v -1.39401 c 0,-0.384943 0.312061,-0.697004 0.697004,-0.697004 h 2e-6 c 0.384944,0 0.697005,0.312061 0.697005,0.697004 v 1.39401 c 0,0.384944 -0.312061,0.697005 -0.697005,0.697005 z"
       stroke-miterlimit="10"
       id="path380"
       inkscape:connector-curvature="0"
       style="fill:none;stroke:#595a5c;stroke-width:0.19084001;stroke-linecap:round;stroke-linejoin:round;stroke-miterlimit:10" />
  </g>
</svg>
